%YAML 1.1
%TAG !u! tag:unity3d.com,2011:
--- !u!1045 &1
EditorBuildSettings:
  m_ObjectHideFlags: 0
  serializedVersion: 2
  m_Scenes:
  - enabled: 1
    path: Assets/Scenes/MainMenu.unity
    guid: 52e200cb28ac74449934fcef9b8e728f
  - enabled: 1
    path: Assets/Scenes/GameSingleplayer.unity
    guid: 2cda990e2423bbf4892e6590ba056729
  - enabled: 1
    path: Assets/Scenes/GameMultiplayer.unity
    guid: 3bc45e520c4f9914fb63eb362f9533dc
  m_configObjects: {}
